moduloK_counter/simulation/qsim/ModuloK_Counter.msim.vcd
$comment
	File created using the following command:
		vcd file ModuloK_Counter.msim.vcd -direction
$end
$date
	Mon Dec 12 11:10:45 2016
$end
$version
	ModelSim Version 10.1d
$end
$timescale
	1ps
$end
$scope module mod6_vlg_vec_tst $end
$var reg 1 ! clock $end
$var reg 1 " reset_k $end
$var wire 1 # Q [5] $end
$var wire 1 $ Q [4] $end
$var wire 1 % Q [3] $end
$var wire 1 & Q [2] $end
$var wire 1 ' Q [1] $end
$var wire 1 ( Q [0] $end
$var wire 1 ) sampler $end
$scope module i1 $end
$var wire 1 * gnd $end
$var wire 1 + vcc $end
$var wire 1 , unknown $end
$var tri1 1 - devclrn $end
$var tri1 1 . devpor $end
$var tri1 1 / devoe $end
$var wire 1 0 clock~combout $end
$var wire 1 1 clock~clkctrl_outclk $end
$var wire 1 2 bit6|Add0~0_combout $end
$var wire 1 3 reset_k~combout $end
$var wire 1 4 reset_k~clkctrl_outclk $end
$var wire 1 5 bit6|Add0~1 $end
$var wire 1 6 bit6|Add0~3 $end
$var wire 1 7 bit6|Add0~4_combout $end
$var wire 1 8 bit6|v~1_combout $end
$var wire 1 9 bit6|Add0~5 $end
$var wire 1 : bit6|Add0~6_combout $end
$var wire 1 ; bit6|Add0~7 $end
$var wire 1 < bit6|Add0~8_combout $end
$var wire 1 = bit6|Add0~9 $end
$var wire 1 > bit6|Add0~10_combout $end
$var wire 1 ? bit6|Equal0~0_combout $end
$var wire 1 @ bit6|Add0~2_combout $end
$var wire 1 A bit6|v~0_combout $end
$var wire 1 B bit6|v [5] $end
$var wire 1 C bit6|v [4] $end
$var wire 1 D bit6|v [3] $end
$var wire 1 E bit6|v [2] $end
$var wire 1 F bit6|v [1] $end
$var wire 1 G bit6|v [0] $end
$upscope $end
$upscope $end
$enddefinitions $end
#0
$dumpvars
0!
1"
0(
0'
0&
0%
0$
0#
x)
0*
1+
x,
1-
1.
1/
00
01
12
13
14
05
16
07
08
09
0:
1;
0<
0=
0>
0?
0@
0A
0G
0F
0E
0D
0C
0B
$end
#40000
1!
10
11
0)
1G
1?
15
02
1(
1@
1A
#80000
0!
00
01
1)
#120000
1!
10
11
0)
1F
0G
06
0@
0?
05
12
1'
0(
17
0A
16
1@
18
07
1A
08
#160000
0!
00
01
1)
#200000
1!
10
11
0)
1G
1?
15
02
1(
06
0@
17
0A
18
#240000
0!
00
01
1)
#280000
1!
10
11
0)
0F
1E
0G
1A
08
16
1@
19
07
0?
05
12
0'
1&
0(
09
17
1:
0@
0:
18
0A
#320000
0!
00
01
1)
#360000
1!
10
11
0)
1G
1?
15
02
1(
1A
08
1@
0A
#400000
0!
00
01
1)
#440000
1!
10
11
0)
0E
0G
1A
18
07
0?
05
12
0&
0(
08
0@
0A
#480000
0!
00
01
1)
#520000
1!
10
11
0)
1G
1?
15
02
1(
1@
1A
#560000
0!
00
01
1)
#600000
1!
10
11
0)
1F
0G
06
0@
0?
05
12
1'
0(
17
0A
16
1@
18
07
1A
08
#640000
0!
00
01
1)
#680000
1!
10
11
0)
1G
1?
15
02
1(
06
0@
17
0A
18
#720000
0!
00
01
1)
#740000
0"
03
04
0)
0G
0F
0?
05
12
16
1@
0(
0'
1A
0@
07
0A
08
#760000
1!
10
11
1)
#780000
1"
13
14
0)
#800000
0!
00
01
1)
#840000
1!
10
11
0)
1G
1?
15
02
1(
1@
1A
#880000
0!
00
01
1)
#920000
1!
10
11
0)
1F
0G
06
0@
0?
05
12
1'
0(
17
0A
16
1@
18
07
1A
08
#960000
0!
00
01
1)
#980000
0"
03
04
0)
0F
0@
0'
0A
