3bit_bcd_counter/simulation/qsim/3bit_BCD_Counter.msim.vcd
$comment
	File created using the following command:
		vcd file 3bit_BCD_Counter.msim.vcd -direction
$end
$date
	Mon Dec 12 11:16:22 2016
$end
$version
	ModelSim Version 10.1d
$end
$timescale
	1ps
$end
$scope module BCD_Counter3_vlg_vec_tst $end
$var reg 1 ! clk $end
$var reg 1 " reset $end
$var wire 1 # SEG0 [6] $end
$var wire 1 $ SEG0 [5] $end
$var wire 1 % SEG0 [4] $end
$var wire 1 & SEG0 [3] $end
$var wire 1 ' SEG0 [2] $end
$var wire 1 ( SEG0 [1] $end
$var wire 1 ) SEG0 [0] $end
$var wire 1 * SEG1 [6] $end
$var wire 1 + SEG1 [5] $end
$var wire 1 , SEG1 [4] $end
$var wire 1 - SEG1 [3] $end
$var wire 1 . SEG1 [2] $end
$var wire 1 / SEG1 [1] $end
$var wire 1 0 SEG1 [0] $end
$var wire 1 1 SEG2 [6] $end
$var wire 1 2 SEG2 [5] $end
$var wire 1 3 SEG2 [4] $end
$var wire 1 4 SEG2 [3] $end
$var wire 1 5 SEG2 [2] $end
$var wire 1 6 SEG2 [1] $end
$var wire 1 7 SEG2 [0] $end
$var wire 1 8 sampler $end
$scope module i1 $end
$var wire 1 9 gnd $end
$var wire 1 : vcc $end
$var wire 1 ; unknown $end
$var tri1 1 < devclrn $end
$var tri1 1 = devpor $end
$var tri1 1 > devoe $end
$var wire 1 ? clock[5]~41_combout $end
$var wire 1 @ Equal0~3_combout $end
$var wire 1 A Equal0~5_combout $end
$var wire 1 B process_0~2_combout $end
$var wire 1 C process_0~5_combout $end
$var wire 1 D process_0~6_combout $end
$var wire 1 E process_0~11_combout $end
$var wire 1 F process_0~30_combout $end
$var wire 1 G process_0~31_combout $end
$var wire 1 H Add1~0_combout $end
$var wire 1 I val1[3]~7_combout $end
$var wire 1 J Add3~0_combout $end
$var wire 1 K Add3~1_combout $end
$var wire 1 L clk~combout $end
$var wire 1 M clk~clkctrl_outclk $end
$var wire 1 N clock[0]~31_combout $end
$var wire 1 O reset~combout $end
$var wire 1 P clock[12]~56 $end
$var wire 1 Q clock[13]~57_combout $end
$var wire 1 R clock[13]~58 $end
$var wire 1 S clock[14]~59_combout $end
$var wire 1 T clock[14]~60 $end
$var wire 1 U clock[15]~61_combout $end
$var wire 1 V clock[15]~62 $end
$var wire 1 W clock[16]~63_combout $end
$var wire 1 X clock[16]~64 $end
$var wire 1 Y clock[17]~65_combout $end
$var wire 1 Z clock[17]~66 $end
$var wire 1 [ clock[18]~67_combout $end
$var wire 1 \ clock[18]~68 $end
$var wire 1 ] clock[19]~69_combout $end
$var wire 1 ^ clock[19]~70 $end
$var wire 1 _ clock[20]~72 $end
$var wire 1 ` clock[21]~74 $end
$var wire 1 a clock[22]~75_combout $end
$var wire 1 b clock[22]~76 $end
$var wire 1 c clock[23]~78 $end
$var wire 1 d clock[24]~79_combout $end
$var wire 1 e clock[24]~80 $end
$var wire 1 f clock[25]~82 $end
$var wire 1 g clock[26]~83_combout $end
$var wire 1 h clock[26]~84 $end
$var wire 1 i clock[27]~86 $end
$var wire 1 j clock[28]~87_combout $end
$var wire 1 k clock[28]~88 $end
$var wire 1 l clock[29]~89_combout $end
$var wire 1 m clock[29]~90 $end
$var wire 1 n clock[30]~91_combout $end
$var wire 1 o clock[4]~39_combout $end
$var wire 1 p val1[3]~1_combout $end
$var wire 1 q clock[2]~35_combout $end
$var wire 1 r val1[3]~0_combout $end
$var wire 1 s val1[3]~10_combout $end
$var wire 1 t val1[3]~8_combout $end
$var wire 1 u clock[27]~85_combout $end
$var wire 1 v clock[25]~81_combout $end
$var wire 1 w clock[23]~77_combout $end
$var wire 1 x val1[3]~5_combout $end
$var wire 1 y val1[3]~6_combout $end
$var wire 1 z clock[11]~53_combout $end
$var wire 1 { val1[3]~3_combout $end
$var wire 1 | val1[3]~4_combout $end
$var wire 1 } val1[3]~9_combout $end
$var wire 1 ~ val1[3]~11_combout $end
$var wire 1 !! clock[21]~73_combout $end
$var wire 1 "! val1[3]~2_combout $end
$var wire 1 #! Equal0~0_combout $end
$var wire 1 $! process_0~32_combout $end
$var wire 1 %! process_0~33_combout $end
$var wire 1 &! process_0~4_combout $end
$var wire 1 '! clock[20]~71_combout $end
$var wire 1 (! clock[9]~49_combout $end
$var wire 1 )! process_0~10_combout $end
$var wire 1 *! process_0~16_combout $end
$var wire 1 +! process_0~0_combout $end
$var wire 1 ,! process_0~13_combout $end
$var wire 1 -! Equal0~9_combout $end
$var wire 1 .! process_0~7_combout $end
$var wire 1 /! process_0~14_combout $end
$var wire 1 0! process_0~15_combout $end
$var wire 1 1! process_0~3_combout $end
$var wire 1 2! process_0~9_combout $end
$var wire 1 3! process_0~1_combout $end
$var wire 1 4! process_0~8_combout $end
$var wire 1 5! process_0~12_combout $end
$var wire 1 6! process_0~17_combout $end
$var wire 1 7! process_0~18_combout $end
$var wire 1 8! process_0~20_combout $end
$var wire 1 9! process_0~19_combout $end
$var wire 1 :! process_0~21_combout $end
$var wire 1 ;! process_0~22_combout $end
$var wire 1 <! process_0~23_combout $end
$var wire 1 =! process_0~24_combout $end
$var wire 1 >! process_0~25_combout $end
$var wire 1 ?! process_0~26_combout $end
$var wire 1 @! process_0~27_combout $end
$var wire 1 A! process_0~28_combout $end
$var wire 1 B! process_0~29_combout $end
$var wire 1 C! process_0~34_combout $end
$var wire 1 D! val1[3]~14_combout $end
$var wire 1 E! clock[0]~32 $end
$var wire 1 F! clock[1]~33_combout $end
$var wire 1 G! clock[1]~34 $end
$var wire 1 H! clock[2]~36 $end
$var wire 1 I! clock[3]~37_combout $end
$var wire 1 J! clock[3]~38 $end
$var wire 1 K! clock[4]~40 $end
$var wire 1 L! clock[5]~42 $end
$var wire 1 M! clock[6]~43_combout $end
$var wire 1 N! clock[6]~44 $end
$var wire 1 O! clock[7]~45_combout $end
$var wire 1 P! clock[7]~46 $end
$var wire 1 Q! clock[8]~47_combout $end
$var wire 1 R! clock[8]~48 $end
$var wire 1 S! clock[9]~50 $end
$var wire 1 T! clock[10]~51_combout $end
$var wire 1 U! clock[10]~52 $end
$var wire 1 V! clock[11]~54 $end
$var wire 1 W! clock[12]~55_combout $end
$var wire 1 X! Equal0~4_combout $end
$var wire 1 Y! Equal0~6_combout $end
$var wire 1 Z! Equal0~7_combout $end
$var wire 1 [! Equal0~1_combout $end
$var wire 1 \! Equal0~2_combout $end
$var wire 1 ]! Equal0~8_combout $end
$var wire 1 ^! val0~4_combout $end
$var wire 1 _! val0[3]~3_combout $end
$var wire 1 `! val0~6_combout $end
$var wire 1 a! val0~2_combout $end
$var wire 1 b! val0~5_combout $end
$var wire 1 c! small|Mux6~0_combout $end
$var wire 1 d! small|Mux5~0_combout $end
$var wire 1 e! small|Mux4~0_combout $end
$var wire 1 f! small|Mux3~0_combout $end
$var wire 1 g! small|Mux2~0_combout $end
$var wire 1 h! small|Mux1~0_combout $end
$var wire 1 i! small|Mux0~0_combout $end
$var wire 1 j! val1[0]~12_combout $end
$var wire 1 k! val1[0]~13_combout $end
$var wire 1 l! Add2~0_combout $end
$var wire 1 m! val1[2]~16_combout $end
$var wire 1 n! Add2~1_combout $end
$var wire 1 o! val1[3]~17_combout $end
$var wire 1 p! val1[1]~15_combout $end
$var wire 1 q! medium|Mux6~0_combout $end
$var wire 1 r! medium|Mux5~0_combout $end
$var wire 1 s! medium|Mux4~0_combout $end
$var wire 1 t! medium|Mux3~0_combout $end
$var wire 1 u! medium|Mux2~0_combout $end
$var wire 1 v! medium|Mux1~0_combout $end
$var wire 1 w! medium|Mux0~0_combout $end
$var wire 1 x! Equal11~0_combout $end
$var wire 1 y! val2[0]~0_combout $end
$var wire 1 z! val2[1]~1_combout $end
$var wire 1 {! val2[2]~2_combout $end
$var wire 1 |! Equal12~0_combout $end
$var wire 1 }! val2[3]~3_combout $end
$var wire 1 ~! large|Mux6~0_combout $end
$var wire 1 !" large|Mux5~0_combout $end
$var wire 1 "" large|Mux4~0_combout $end
$var wire 1 #" large|Mux3~0_combout $end
$var wire 1 $" large|Mux2~0_combout $end
$var wire 1 %" large|Mux1~0_combout $end
$var wire 1 &" large|Mux0~0_combout $end
$var wire 1 '" val1 [3] $end
$var wire 1 (" val1 [2] $end
$var wire 1 )" val1 [1] $end
$var wire 1 *" val1 [0] $end
$var wire 1 +" clock [30] $end
$var wire 1 ," clock [29] $end
$var wire 1 -" clock [28] $end
$var wire 1 ." clock [27] $end
$var wire 1 /" clock [26] $end
$var wire 1 0" clock [25] $end
$var wire 1 1" clock [24] $end
$var wire 1 2" clock [23] $end
$var wire 1 3" clock [22] $end
$var wire 1 4" clock [21] $end
$var wire 1 5" clock [20] $end
$var wire 1 6" clock [19] $end
$var wire 1 7" clock [18] $end
$var wire 1 8" clock [17] $end
$var wire 1 9" clock [16] $end
$var wire 1 :" clock [15] $end
$var wire 1 ;" clock [14] $end
$var wire 1 <" clock [13] $end
$var wire 1 =" clock [12] $end
$var wire 1 >" clock [11] $end
$var wire 1 ?" clock [10] $end
$var wire 1 @" clock [9] $end
$var wire 1 A" clock [8] $end
$var wire 1 B" clock [7] $end
$var wire 1 C" clock [6] $end
$var wire 1 D" clock [5] $end
$var wire 1 E" clock [4] $end
$var wire 1 F" clock [3] $end
$var wire 1 G" clock [2] $end
$var wire 1 H" clock [1] $end
$var wire 1 I" clock [0] $end
$var wire 1 J" val2 [3] $end
$var wire 1 K" val2 [2] $end
$var wire 1 L" val2 [1] $end
$var wire 1 M" val2 [0] $end
$var wire 1 N" val0 [3] $end
$var wire 1 O" val0 [2] $end
$var wire 1 P" val0 [1] $end
$var wire 1 Q" val0 [0] $end
$upscope $end
$upscope $end
$enddefinitions $end
#0
$dumpvars
0!
0"
1)
0(
0'
0&
0%
0$
0#
10
0/
0.
0-
0,
0+
0*
17
06
05
04
03
02
01
x8
09
1:
x;
1<
1=
1>
0?
1@
1A
0B
0C
0D
0E
0F
0G
0H
1I
0J
0K
0L
0M
1N
0O
0P
0Q
1R
0S
0T
0U
1V
0W
0X
0Y
1Z
0[
0\
0]
1^
0_
1`
0a
0b
1c
0d
0e
1f
0g
0h
1i
0j
0k
0l
1m
0n
0o
1p
0q
1r
1s
1t
0u
0v
0w
1x
1y
0z
1{
1|
1}
1~
0!!
0"!
1#!
0$!
0%!
0&!
0'!
0(!
0)!
0*!
0+!
0,!
1-!
0.!
0/!
00!
01!
02!
03!
04!
05!
06!
07!
08!
09!
0:!
0;!
0<!
0=!
0>!
0?!
0@!
0A!
0B!
0C!
0D!
0E!
0F!
1G!
0H!
0I!
1J!
0K!
1L!
0M!
0N!
0O!
1P!
0Q!
0R!
1S!
0T!
0U!
1V!
0W!
1X!
1Y!
1Z!
1[!
1\!
1]!
0^!
1_!
0`!
0a!
0b!
0c!
0d!
0e!
0f!
0g!
0h!
0i!
0j!
0k!
0l!
0m!
0n!
0o!
0p!
0q!
0r!
0s!
0t!
0u!
0v!
0w!
1x!
0y!
0z!
0{!
0|!
0}!
0~!
0!"
0""
0#"
0$"
0%"
0&"
0*"
0)"
0("
0'"
0I"
0H"
0G"
0F"
0E"
0D"
0C"
0B"
0A"
0@"
0?"
0>"
0="
0<"
0;"
0:"
09"
08"
07"
06"
05"
04"
03"
02"
01"
00"
0/"
0."
0-"
0,"
0+"
0M"
0L"
0K"
0J"
0Q"
0P"
0O"
0N"
$end
#2500
1!
1L
1M
08
#5000
0!
0L
0M
18
#7500
1!
1L
1M
08
#10000
0!
0L
0M
18
#12500
1!
1L
1M
08
#15000
0!
0L
0M
18
#17500
1!
1L
1M
08
#20000
0!
0L
0M
18
#22500
1!
1L
1M
08
#25000
0!
0L
0M
18
#27500
1!
1L
1M
08
#30000
0!
0L
0M
18
#32500
1!
1L
1M
08
#35000
0!
0L
0M
18
#37500
1!
1L
1M
08
#40000
0!
0L
0M
18
#42500
1!
1L
1M
08
#45000
0!
0L
0M
18
#47500
1!
1L
1M
08
#50000
0!
0L
0M
18
#52500
1!
1L
1M
08
#55000
0!
0L
0M
18
#57500
1!
1L
1M
08
#60000
0!
0L
0M
18
#62500
1!
1L
1M
08
#65000
0!
0L
0M
18
#67500
1!
1L
1M
08
#70000
0!
0L
0M
18
#72500
1!
1L
1M
08
#75000
0!
0L
0M
18
#77500
1!
1L
1M
08
#80000
0!
0L
0M
18
#82500
1!
1L
1M
08
#85000
0!
0L
0M
18
#87500
1!
1L
1M
08
#90000
0!
0L
0M
18
#92500
1!
1L
1M
08
#95000
0!
0L
0M
18
#97500
1!
1L
1M
08
#100000
0!
0L
0M
18
#102500
1!
1L
1M
08
#105000
0!
0L
0M
18
#107500
1!
1L
1M
08
#110000
0!
0L
0M
18
#112500
1!
1L
1M
08
#115000
0!
0L
0M
18
#117500
1!
1L
1M
08
#120000
0!
0L
0M
18
#122500
1!
1L
1M
08
#125000
0!
0L
0M
18
#127500
1!
1L
1M
08
#130000
0!
0L
0M
18
#132500
1!
1L
1M
08
#135000
0!
0L
0M
18
#137500
1!
1L
1M
08
#140000
0!
0L
0M
18
#142500
1!
1L
1M
08
#145000
0!
0L
0M
18
#147500
1!
1L
1M
08
#150000
0!
0L
0M
18
#152500
1!
1L
1M
08
#155000
0!
0L
0M
18
#157500
1!
1L
1M
08
#160000
0!
0L
0M
18
#162500
1!
1L
1M
08
#165000
0!
0L
0M
18
#167500
1!
1L
1M
08
#170000
0!
0L
0M
18
#172500
1!
1L
1M
08
#175000
0!
0L
0M
18
#177500
1!
1L
1M
08
#180000
0!
0L
0M
18
#182500
1!
1L
1M
08
#185000
0!
0L
0M
18
#187500
1!
1L
1M
08
#190000
0!
0L
0M
18
#192500
1!
1L
1M
08
#195000
0!
0L
0M
18
#197500
1!
1L
1M
08
#200000
0!
0L
0M
18
#202500
1!
1L
1M
08
#205000
0!
0L
0M
18
#207500
1!
1L
1M
08
#210000
0!
0L
0M
18
#212500
1!
1L
1M
08
#215000
0!
0L
0M
18
#217500
1!
1L
1M
08
#220000
0!
0L
0M
18
#222500
1!
1L
1M
08
#225000
0!
0L
0M
18
#227500
1!
1L
1M
08
#230000
0!
0L
0M
18
#232500
1!
1L
1M
08
#235000
0!
0L
0M
18
#237500
1!
1L
1M
08
#240000
0!
0L
0M
18
#242500
1!
1L
1M
08
#245000
0!
0L
0M
18
#247500
1!
1L
1M
08
#250000
0!
0L
0M
18
#252500
1!
1L
1M
08
#255000
0!
0L
0M
18
#257500
1!
1L
1M
08
#260000
0!
0L
0M
18
#262500
1!
1L
1M
08
#265000
0!
0L
0M
18
#267500
1!
1L
1M
08
#270000
0!
0L
0M
18
#272500
1!
1L
1M
08
#275000
0!
0L
0M
18
#277500
1!
1L
1M
08
#280000
0!
0L
0M
18
#282500
1!
1L
1M
08
#285000
0!
0L
0M
18
#287500
1!
1L
1M
08
#290000
0!
0L
0M
18
#292500
1!
1L
1M
08
#295000
0!
0L
0M
18
#297500
1!
1L
1M
08
#300000
0!
0L
0M
18
#302500
1!
1L
1M
08
#305000
0!
0L
0M
18
#307500
1!
1L
1M
08
#310000
0!
0L
0M
18
#312500
1!
1L
1M
08
#315000
0!
0L
0M
18
#317500
1!
1L
1M
08
#320000
0!
0L
0M
18
#322500
1!
1L
1M
08
#325000
0!
0L
0M
18
#327500
1!
1L
1M
08
#330000
0!
0L
0M
18
#332500
1!
1L
1M
08
#335000
0!
0L
0M
18
#337500
1!
1L
1M
08
#340000
0!
0L
0M
18
#342500
1!
1L
1M
08
#345000
0!
0L
0M
18
#347500
1!
1L
1M
08
#350000
0!
0L
0M
18
#352500
1!
1L
1M
08
#355000
0!
0L
0M
18
#357500
1!
1L
1M
08
#360000
0!
0L
0M
18
#362500
1!
1L
1M
08
#365000
0!
0L
0M
18
#367500
1!
1L
1M
08
#370000
0!
0L
0M
18
#372500
1!
1L
1M
08
#375000
0!
0L
0M
18
#377500
1!
1L
1M
08
#380000
0!
0L
0M
18
#382500
1!
1L
1M
08
#385000
0!
0L
0M
18
#387500
1!
1L
1M
08
#390000
0!
0L
0M
18
#392500
1!
1L
1M
08
#395000
0!
0L
0M
18
#397500
1!
1L
1M
08
#400000
0!
0L
0M
18
#402500
1!
1L
1M
08
#405000
0!
0L
0M
18
#407500
1!
1L
1M
08
#410000
0!
0L
0M
18
#412500
1!
1L
1M
08
#415000
0!
0L
0M
18
#417500
1!
1L
1M
08
#420000
0!
0L
0M
18
#422500
1!
1L
1M
08
#425000
0!
0L
0M
18
#427500
1!
1L
1M
08
#430000
0!
0L
0M
18
#432500
1!
1L
1M
08
#435000
0!
0L
0M
18
#437500
1!
1L
1M
08
#440000
0!
0L
0M
18
#442500
1!
1L
1M
08
#445000
0!
0L
0M
18
#447500
1!
1L
1M
08
#450000
0!
0L
0M
18
#452500
1!
1L
1M
08
#455000
0!
0L
0M
18
#457500
1!
1L
1M
08
#460000
0!
0L
0M
18
#462500
1!
1L
1M
08
#465000
0!
0L
0M
18
#467500
1!
1L
1M
08
#470000
0!
0L
0M
18
#472500
1!
1L
1M
08
#475000
0!
0L
0M
18
#477500
1!
1L
1M
08
#480000
0!
0L
0M
18
#482500
1!
1L
1M
08
#485000
0!
0L
0M
18
#487500
1!
1L
1M
08
#490000
0!
0L
0M
18
#492500
1!
1L
1M
08
#495000
0!
0L
0M
18
#497500
1!
1L
1M
08
#500000
0!
0L
0M
18
#502500
1!
1L
1M
08
#505000
0!
0L
0M
18
#507500
1!
1L
1M
08
#510000
0!
0L
0M
18
#512500
1!
1L
1M
08
#515000
0!
0L
0M
18
#517500
1!
1L
1M
08
#520000
0!
0L
0M
18
#522500
1!
1L
1M
08
#525000
0!
0L
0M
18
#527500
1!
1L
1M
08
#530000
0!
0L
0M
18
#532500
1!
1L
1M
08
#535000
0!
0L
0M
18
#537500
1!
1L
1M
08
#540000
0!
0L
0M
18
#542500
1!
1L
1M
08
#545000
0!
0L
0M
18
#547500
1!
1L
1M
08
#550000
0!
0L
0M
18
#552500
1!
1L
1M
08
#555000
0!
0L
0M
18
#557500
1!
1L
1M
08
#560000
0!
0L
0M
18
#562500
1!
1L
1M
08
#565000
0!
0L
0M
18
#567500
1!
1L
1M
08
#570000
0!
0L
0M
18
#572500
1!
1L
1M
08
#575000
0!
0L
0M
18
#577500
1!
1L
1M
08
#580000
0!
0L
0M
18
#582500
1!
1L
1M
08
#585000
0!
0L
0M
18
#587500
1!
1L
1M
08
#590000
0!
0L
0M
18
#592500
1!
1L
1M
08
#595000
0!
0L
0M
18
#597500
1!
1L
1M
08
#600000
0!
0L
0M
18
#602500
1!
1L
1M
08
#605000
0!
0L
0M
18
#607500
1!
1L
1M
08
#610000
0!
0L
0M
18
#612500
1!
1L
1M
08
#615000
0!
0L
0M
18
#617500
1!
1L
1M
08
#620000
0!
0L
0M
18
#622500
1!
1L
1M
08
#625000
0!
0L
0M
18
#627500
1!
1L
1M
08
#630000
0!
0L
0M
18
#632500
1!
1L
1M
08
#635000
0!
0L
0M
18
#637500
1!
1L
1M
08
#640000
0!
0L
0M
18
#642500
1!
1L
1M
08
#645000
0!
0L
0M
18
#647500
1!
1L
1M
08
#650000
0!
0L
0M
18
#652500
1!
1L
1M
08
#655000
0!
0L
0M
18
#657500
1!
1L
1M
08
#660000
0!
0L
0M
18
#662500
1!
1L
1M
08
#665000
0!
0L
0M
18
#667500
1!
1L
1M
08
#670000
0!
0L
0M
18
#672500
1!
1L
1M
08
#675000
0!
0L
0M
18
#677500
1!
1L
1M
08
#680000
0!
0L
0M
18
#682500
1!
1L
1M
08
#685000
0!
0L
0M
18
#687500
1!
1L
1M
08
#690000
0!
0L
0M
18
#692500
1!
1L
1M
08
#695000
0!
0L
0M
18
#697500
1!
1L
1M
08
#700000
0!
0L
0M
18
#702500
1!
1L
1M
08
#705000
0!
0L
0M
18
#707500
1!
1L
1M
08
#710000
0!
0L
0M
18
#712500
1!
1L
1M
08
#715000
0!
0L
0M
18
#717500
1!
1L
1M
08
#720000
0!
0L
0M
18
#722500
1!
1L
1M
08
#725000
0!
0L
0M
18
#727500
1!
1L
1M
08
#730000
0!
0L
0M
18
#732500
1!
1L
1M
08
#735000
0!
0L
0M
18
#737500
1!
1L
1M
08
#740000
0!
0L
0M
18
#742500
1!
1L
1M
08
#745000
0!
0L
0M
18
#747500
1!
1L
1M
08
#750000
0!
0L
0M
18
#752500
1!
1L
1M
08
#755000
0!
0L
0M
18
#757500
1!
1L
1M
08
#760000
0!
0L
0M
18
#762500
1!
1L
1M
08
#765000
0!
0L
0M
18
#767500
1!
1L
1M
08
#770000
0!
0L
0M
18
#772500
1!
1L
1M
08
#775000
0!
0L
0M
18
#777500
1!
1L
1M
08
#780000
0!
0L
0M
18
#782500
1!
1L
1M
08
#785000
0!
0L
0M
18
#787500
1!
1L
1M
08
#790000
0!
0L
0M
18
#792500
1!
1L
1M
08
#795000
0!
0L
0M
18
#797500
1!
1L
1M
08
#800000
0!
0L
0M
18
#802500
1!
1L
1M
08
#805000
0!
0L
0M
18
#807500
1!
1L
1M
08
#810000
0!
0L
0M
18
#812500
1!
1L
1M
08
#815000
0!
0L
0M
18
#817500
1!
1L
1M
08
#820000
0!
0L
0M
18
#822500
1!
1L
1M
08
#825000
0!
0L
0M
18
#827500
1!
1L
1M
08
#830000
0!
0L
0M
18
#832500
1!
1L
1M
08
#835000
0!
0L
0M
18
#837500
1!
1L
1M
08
#840000
0!
0L
0M
18
#842500
1!
1L
1M
08
#845000
0!
0L
0M
18
#847500
1!
1L
1M
08
#850000
0!
0L
0M
18
#852500
1!
1L
1M
08
#855000
0!
0L
0M
18
#857500
1!
1L
1M
08
#860000
0!
0L
0M
18
#862500
1!
1L
1M
08
#865000
0!
0L
0M
18
#867500
1!
1L
1M
08
#870000
0!
0L
0M
18
#872500
1!
1L
1M
08
#875000
0!
0L
0M
18
#877500
1!
1L
1M
08
#880000
0!
0L
0M
18
#882500
1!
1L
1M
08
#885000
0!
0L
0M
18
#887500
1!
1L
1M
08
#890000
0!
0L
0M
18
#892500
1!
1L
1M
08
#895000
0!
0L
0M
18
#897500
1!
1L
1M
08
#900000
0!
0L
0M
18
#902500
1!
1L
1M
08
#905000
0!
0L
0M
18
#907500
1!
1L
1M
08
#910000
0!
0L
0M
18
#912500
1!
1L
1M
08
#915000
0!
0L
0M
18
#917500
1!
1L
1M
08
#920000
0!
0L
0M
18
#922500
1!
1L
1M
08
#925000
0!
0L
0M
18
#927500
1!
1L
1M
08
#930000
0!
0L
0M
18
#932500
1!
1L
1M
08
#935000
0!
0L
0M
18
#937500
1!
1L
1M
08
#940000
0!
0L
0M
18
#942500
1!
1L
1M
08
#945000
0!
0L
0M
18
#947500
1!
1L
1M
08
#950000
0!
0L
0M
18
#952500
1!
1L
1M
08
#955000
0!
0L
0M
18
#957500
1!
1L
1M
08
#960000
0!
0L
0M
18
#962500
1!
1L
1M
08
#965000
0!
0L
0M
18
#967500
1!
1L
1M
08
#970000
0!
0L
0M
18
#972500
1!
1L
1M
08
#975000
0!
0L
0M
18
#977500
1!
1L
1M
08
#980000
0!
0L
0M
18
#982500
1!
1L
1M
08
#985000
0!
0L
0M
18
#987500
1!
1L
1M
08
#990000
0!
0L
0M
18
#992500
1!
1L
1M
08
#995000
0!
0L
0M
18
#997500
1!
1L
1M
08
